{
  "status": "OK",
  "result": {
    "offset": 0,
    "limit": 30,
    "total": 207,
    "webcams": [
      {
        "id": "1249040670",
        "status": "active",
        "title": "San Zeno di Montagna",
        "image": {
          "current": {
            "icon": "https://images-webcams.windy.com/70/1249040670/current/icon/1249040670.jpg",
            "thumbnail": "https://images-webcams.windy.com/70/1249040670/current/thumbnail/1249040670.jpg",
            "preview": "https://images-webcams.windy.com/70/1249040670/current/preview/1249040670.jpg",
            "toenail": "https://images-webcams.windy.com/70/1249040670/current/thumbnail/1249040670.jpg"
          },
          "sizes": {
            "icon": {
              "width": 48,
              "height": 48
            },
            "thumbnail": {
              "width": 200,
              "height": 112
            },
            "preview": {
              "width": 400,
              "height": 224
            },
            "toenail": {
              "width": 200,
              "height": 112
            }
          },
          "daylight": {
            "icon": "https://images-webcams.windy.com/70/1249040670/daylight/icon/1249040670.jpg",
            "thumbnail": "https://images-webcams.windy.com/70/1249040670/daylight/thumbnail/1249040670.jpg",
            "preview": "https://images-webcams.windy.com/70/1249040670/daylight/preview/1249040670.jpg",
            "toenail": "https://images-webcams.windy.com/70/1249040670/daylight/thumbnail/1249040670.jpg"
          },
          "update": 1577734123
        },
        "location": {
          "city": "San Zeno di Montagna",
          "region": "Veneto",
          "region_code": "IT.20",
          "country": "Italy",
          "country_code": "IT",
          "continent": "Europe",
          "continent_code": "EU",
          "latitude": 45.638444,
          "longitude": 10.733296,
          "timezone": "Europe/Rome",
          "wikipedia": "https://it.wikipedia.org/wiki/San Zeno di Montagna"
        },
        "player": {
          "live": {
            "available": false,
            "embed": ""
          },
          "day": {
            "available": true,
            "link": "https://www.lookr.com/lookout/1249040670#action-play-day",
            "embed": "https://api.lookr.com/embed/player/1249040670/day"
          },
          "month": {
            "available": true,
            "link": "https://www.lookr.com/lookout/1249040670#action-play-month",
            "embed": "https://api.lookr.com/embed/player/1249040670/month"
          },
          "year": {
            "available": true,
            "link": "https://www.lookr.com/lookout/1249040670#action-play-year",
            "embed": "https://api.lookr.com/embed/player/1249040670/year"
          },
          "lifetime": {
            "available": true,
            "link": "https://www.lookr.com/lookout/1249040670#action-play-lifetime",
            "embed": "https://api.lookr.com/embed/player/1249040670/lifetime"
          }
        }
      },
      {
        "id": "1455875440",
        "status": "active",
        "title": "Vallarsa: Campogrosso - Veneto",
        "image": {
          "current": {
            "icon": "https://images-webcams.windy.com/40/1455875440/current/icon/1455875440.jpg",
            "thumbnail": "https://images-webcams.windy.com/40/1455875440/current/thumbnail/1455875440.jpg",
            "preview": "https://images-webcams.windy.com/40/1455875440/current/preview/1455875440.jpg",
            "toenail": "https://images-webcams.windy.com/40/1455875440/current/thumbnail/1455875440.jpg"
          },
          "sizes": {
            "icon": {
              "width": 48,
              "height": 48
            },
            "thumbnail": {
              "width": 200,
              "height": 112
            },
            "preview": {
              "width": 400,
              "height": 224
            },
            "toenail": {
              "width": 200,
              "height": 112
            }
          },
          "daylight": {
            "icon": "https://images-webcams.windy.com/40/1455875440/daylight/icon/1455875440.jpg",
            "thumbnail": "https://images-webcams.windy.com/40/1455875440/daylight/thumbnail/1455875440.jpg",
            "preview": "https://images-webcams.windy.com/40/1455875440/daylight/preview/1455875440.jpg",
            "toenail": "https://images-webcams.windy.com/40/1455875440/daylight/thumbnail/1455875440.jpg"
          },
          "update": 1577729057
        },
        "location": {
          "city": "Vallarsa",
          "region": "Trentino-Alto Adige/Südtirol",
          "region_code": "IT.17",
          "country": "Italy",
          "country_code": "IT",
          "continent": "Europe",
          "continent_code": "EU",
          "latitude": 45.728231,
          "longitude": 11.17367,
          "timezone": "Europe/Rome",
          "wikipedia": "https://it.wikipedia.org/wiki/Vallarsa"
        },
        "player": {
          "live": {
            "available": false,
            "embed": ""
          },
          "day": {
            "available": true,
            "link": "https://www.lookr.com/lookout/1455875440#action-play-day",
            "embed": "https://api.lookr.com/embed/player/1455875440/day"
          },
          "month": {
            "available": true,
            "link": "https://www.lookr.com/lookout/1455875440#action-play-month",
            "embed": "https://api.lookr.com/embed/player/1455875440/month"
          },
          "year": {
            "available": true,
            "link": "https://www.lookr.com/lookout/1455875440#action-play-year",
            "embed": "https://api.lookr.com/embed/player/1455875440/year"
          },
          "lifetime": {
            "available": true,
            "link": "https://www.lookr.com/lookout/1455875440#action-play-lifetime",
            "embed": "https://api.lookr.com/embed/player/1455875440/lifetime"
          }
        }
      },
      {
        "id": "1453408595",
        "status": "active",
        "title": "Venice: Webcam - Ponte di Rialto \"Rialto Bridge",
        "image": {
          "current": {
            "icon": "https://images-webcams.windy.com/95/1453408595/current/icon/1453408595.jpg",
            "thumbnail": "https://images-webcams.windy.com/95/1453408595/current/thumbnail/1453408595.jpg",
            "preview": "https://images-webcams.windy.com/95/1453408595/current/preview/1453408595.jpg",
            "toenail": "https://images-webcams.windy.com/95/1453408595/current/thumbnail/1453408595.jpg"
          },
          "sizes": {
            "icon": {
              "width": 48,
              "height": 48
            },
            "thumbnail": {
              "width": 200,
              "height": 112
            },
            "preview": {
              "width": 400,
              "height": 224
            },
            "toenail": {
              "width": 200,
              "height": 112
            }
          },
          "daylight": {
            "icon": "https://images-webcams.windy.com/95/1453408595/daylight/icon/1453408595.jpg",
            "thumbnail": "https://images-webcams.windy.com/95/1453408595/daylight/thumbnail/1453408595.jpg",
            "preview": "https://images-webcams.windy.com/95/1453408595/daylight/preview/1453408595.jpg",
            "toenail": "https://images-webcams.windy.com/95/1453408595/daylight/thumbnail/1453408595.jpg"
          },
          "update": 1577733881
        },
        "location": {
          "city": "Venice",
          "region": "Veneto",
          "region_code": "IT.20",
          "country": "Italy",
          "country_code": "IT",
          "continent": "Europe",
          "continent_code": "EU",
          "latitude": 45.43752,
          "longitude": 12.33463,
          "timezone": "Europe/Rome",
          "wikipedia": "https://it.wikipedia.org/wiki/Venezia"
        },
        "player": {
          "live": {
            "available": false,
            "embed": ""
          },
          "day": {
            "available": true,
            "link": "https://www.lookr.com/lookout/1453408595#action-play-day",
            "embed": "https://api.lookr.com/embed/player/1453408595/day"
          },
          "month": {
            "available": true,
            "link": "https://www.lookr.com/lookout/1453408595#action-play-month",
            "embed": "https://api.lookr.com/embed/player/1453408595/month"
          },
          "year": {
            "available": true,
            "link": "https://www.lookr.com/lookout/1453408595#action-play-year",
            "embed": "https://api.lookr.com/embed/player/1453408595/year"
          },
          "lifetime": {
            "available": true,
            "link": "https://www.lookr.com/lookout/1453408595#action-play-lifetime",
            "embed": "https://api.lookr.com/embed/player/1453408595/lifetime"
          }
        }
      },
      {
        "id": "1244040306",
        "status": "active",
        "title": "Venice: Hotel Danieli - South",
        "image": {
          "current": {
            "icon": "https://images-webcams.windy.com/06/1244040306/current/icon/1244040306.jpg",
            "thumbnail": "https://images-webcams.windy.com/06/1244040306/current/thumbnail/1244040306.jpg",
            "preview": "https://images-webcams.windy.com/06/1244040306/current/preview/1244040306.jpg",
            "toenail": "https://images-webcams.windy.com/06/1244040306/current/thumbnail/1244040306.jpg"
          },
          "sizes": {
            "icon": {
              "width": 48,
              "height": 48
            },
            "thumbnail": {
              "width": 200,
              "height": 112
            },
            "preview": {
              "width": 400,
              "height": 224
            },
            "toenail": {
              "width": 200,
              "height": 112
            }
          },
          "daylight": {
            "icon": "https://images-webcams.windy.com/06/1244040306/daylight/icon/1244040306.jpg",
            "thumbnail": "https://images-webcams.windy.com/06/1244040306/daylight/thumbnail/1244040306.jpg",
            "preview": "https://images-webcams.windy.com/06/1244040306/daylight/preview/1244040306.jpg",
            "toenail": "https://images-webcams.windy.com/06/1244040306/daylight/thumbnail/1244040306.jpg"
          },
          "update": 1577734476
        },
        "location": {
          "city": "Venice",
          "region": "Veneto",
          "region_code": "IT.20",
          "country": "Italy",
          "country_code": "IT",
          "continent": "Europe",
          "continent_code": "EU",
          "latitude": 45.432351,
          "longitude": 12.34211,
          "timezone": "Europe/Rome",
          "wikipedia": "https://it.wikipedia.org/wiki/Venezia"
        },
        "player": {
          "live": {
            "available": false,
            "embed": ""
          },
          "day": {
            "available": true,
            "link": "https://www.lookr.com/lookout/1244040306#action-play-day",
            "embed": "https://api.lookr.com/embed/player/1244040306/day"
          },
          "month": {
            "available": true,
            "link": "https://www.lookr.com/lookout/1244040306#action-play-month",
            "embed": "https://api.lookr.com/embed/player/1244040306/month"
          },
          "year": {
            "available": true,
            "link": "https://www.lookr.com/lookout/1244040306#action-play-year",
            "embed": "https://api.lookr.com/embed/player/1244040306/year"
          },
          "lifetime": {
            "available": true,
            "link": "https://www.lookr.com/lookout/1244040306#action-play-lifetime",
            "embed": "https://api.lookr.com/embed/player/1244040306/lifetime"
          }
        }
      },
      {
        "id": "1241725572",
        "status": "active",
        "title": "Venice: Hotel American Dinesen",
        "image": {
          "current": {
            "icon": "https://images-webcams.windy.com/72/1241725572/current/icon/1241725572.jpg",
            "thumbnail": "https://images-webcams.windy.com/72/1241725572/current/thumbnail/1241725572.jpg",
            "preview": "https://images-webcams.windy.com/72/1241725572/current/preview/1241725572.jpg",
            "toenail": "https://images-webcams.windy.com/72/1241725572/current/thumbnail/1241725572.jpg"
          },
          "sizes": {
            "icon": {
              "width": 48,
              "height": 48
            },
            "thumbnail": {
              "width": 200,
              "height": 112
            },
            "preview": {
              "width": 400,
              "height": 224
            },
            "toenail": {
              "width": 200,
              "height": 112
            }
          },
          "daylight": {
            "icon": "https://images-webcams.windy.com/72/1241725572/daylight/icon/1241725572.jpg",
            "thumbnail": "https://images-webcams.windy.com/72/1241725572/daylight/thumbnail/1241725572.jpg",
            "preview": "https://images-webcams.windy.com/72/1241725572/daylight/preview/1241725572.jpg",
            "toenail": "https://images-webcams.windy.com/72/1241725572/daylight/thumbnail/1241725572.jpg"
          },
          "update": 1577734422
        },
        "location": {
          "city": "Venice",
          "region": "Veneto",
          "region_code": "IT.20",
          "country": "Italy",
          "country_code": "IT",
          "continent": "Europe",
          "continent_code": "EU",
          "latitude": 45.430485,
          "longitude": 12.329997,
          "timezone": "Europe/Rome",
          "wikipedia": "https://it.wikipedia.org/wiki/Venezia"
        },
        "player": {
          "live": {
            "available": false,
            "embed": ""
          },
          "day": {
            "available": true,
            "link": "https://www.lookr.com/lookout/1241725572#action-play-day",
            "embed": "https://api.lookr.com/embed/player/1241725572/day"
          },
          "month": {
            "available": true,
            "link": "https://www.lookr.com/lookout/1241725572#action-play-month",
            "embed": "https://api.lookr.com/embed/player/1241725572/month"
          },
          "year": {
            "available": true,
            "link": "https://www.lookr.com/lookout/1241725572#action-play-year",
            "embed": "https://api.lookr.com/embed/player/1241725572/year"
          },
          "lifetime": {
            "available": true,
            "link": "https://www.lookr.com/lookout/1241725572#action-play-lifetime",
            "embed": "https://api.lookr.com/embed/player/1241725572/lifetime"
          }
        }
      },
      {
        "id": "1525422105",
        "status": "active",
        "title": "Belluno › East: Basilica Minore di S. Martino",
        "image": {
          "current": {
            "icon": "https://images-webcams.windy.com/05/1525422105/current/icon/1525422105.jpg",
            "thumbnail": "https://images-webcams.windy.com/05/1525422105/current/thumbnail/1525422105.jpg",
            "preview": "https://images-webcams.windy.com/05/1525422105/current/preview/1525422105.jpg",
            "toenail": "https://images-webcams.windy.com/05/1525422105/current/thumbnail/1525422105.jpg"
          },
          "sizes": {
            "icon": {
              "width": 48,
              "height": 48
            },
            "thumbnail": {
              "width": 200,
              "height": 112
            },
            "preview": {
              "width": 400,
              "height": 224
            },
            "toenail": {
              "width": 200,
              "height": 112
            }
          },
          "daylight": {
            "icon": "https://images-webcams.windy.com/05/1525422105/daylight/icon/1525422105.jpg",
            "thumbnail": "https://images-webcams.windy.com/05/1525422105/daylight/thumbnail/1525422105.jpg",
            "preview": "https://images-webcams.windy.com/05/1525422105/daylight/preview/1525422105.jpg",
            "toenail": "https://images-webcams.windy.com/05/1525422105/daylight/thumbnail/1525422105.jpg"
          },
          "update": 1577734590
        },
        "location": {
          "city": "Belluno",
          "region": "Veneto",
          "region_code": "IT.20",
          "country": "Italy",
          "country_code": "IT",
          "continent": "Europe",
          "continent_code": "EU",
          "latitude": 46.137804,
          "longitude": 12.209458,
          "timezone": "Europe/Rome",
          "wikipedia": "https://it.wikipedia.org/wiki/Belluno"
        },
        "player": {
          "live": {
            "available": false,
            "embed": ""
          },
          "day": {
            "available": true,
            "link": "https://www.lookr.com/lookout/1525422105#action-play-day",
            "embed": "https://api.lookr.com/embed/player/1525422105/day"
          },
          "month": {
            "available": true,
            "link": "https://www.lookr.com/lookout/1525422105#action-play-month",
            "embed": "https://api.lookr.com/embed/player/1525422105/month"
          },
          "year": {
            "available": true,
            "link": "https://www.lookr.com/lookout/1525422105#action-play-year",
            "embed": "https://api.lookr.com/embed/player/1525422105/year"
          },
          "lifetime": {
            "available": true,
            "link": "https://www.lookr.com/lookout/1525422105#action-play-lifetime",
            "embed": "https://api.lookr.com/embed/player/1525422105/lifetime"
          }
        }
      },
      {
        "id": "1523278076",
        "status": "active",
        "title": "Malcesine: Monte Baldo",
        "image": {
          "current": {
            "icon": "https://images-webcams.windy.com/76/1523278076/current/icon/1523278076.jpg",
            "thumbnail": "https://images-webcams.windy.com/76/1523278076/current/thumbnail/1523278076.jpg",
            "preview": "https://images-webcams.windy.com/76/1523278076/current/preview/1523278076.jpg",
            "toenail": "https://images-webcams.windy.com/76/1523278076/current/thumbnail/1523278076.jpg"
          },
          "sizes": {
            "icon": {
              "width": 48,
              "height": 48
            },
            "thumbnail": {
              "width": 200,
              "height": 112
            },
            "preview": {
              "width": 400,
              "height": 224
            },
            "toenail": {
              "width": 200,
              "height": 112
            }
          },
          "daylight": {
            "icon": "https://images-webcams.windy.com/76/1523278076/daylight/icon/1523278076.jpg",
            "thumbnail": "https://images-webcams.windy.com/76/1523278076/daylight/thumbnail/1523278076.jpg",
            "preview": "https://images-webcams.windy.com/76/1523278076/daylight/preview/1523278076.jpg",
            "toenail": "https://images-webcams.windy.com/76/1523278076/daylight/thumbnail/1523278076.jpg"
          },
          "update": 1577734111
        },
        "location": {
          "city": "Malcesine",
          "region": "Veneto",
          "region_code": "IT.20",
          "country": "Italy",
          "country_code": "IT",
          "continent": "Europe",
          "continent_code": "EU",
          "latitude": 45.74711,
          "longitude": 10.864283,
          "timezone": "Europe/Rome",
          "wikipedia": "https://it.wikipedia.org/wiki/Malcesine"
        },
        "player": {
          "live": {
            "available": false,
            "embed": ""
          },
          "day": {
            "available": true,
            "link": "https://www.lookr.com/lookout/1523278076#action-play-day",
            "embed": "https://api.lookr.com/embed/player/1523278076/day"
          },
          "month": {
            "available": true,
            "link": "https://www.lookr.com/lookout/1523278076#action-play-month",
            "embed": "https://api.lookr.com/embed/player/1523278076/month"
          },
          "year": {
            "available": true,
            "link": "https://www.lookr.com/lookout/1523278076#action-play-year",
            "embed": "https://api.lookr.com/embed/player/1523278076/year"
          },
          "lifetime": {
            "available": false,
            "link": "https://www.lookr.com/lookout/1523278076#action-play-lifetime",
            "embed": "https://api.lookr.com/embed/player/1523278076/lifetime"
          }
        }
      },
      {
        "id": "1490378791",
        "status": "active",
        "title": "San Vito di Cadore › North: San Vito - centro paese",
        "image": {
          "current": {
            "icon": "https://images-webcams.windy.com/91/1490378791/current/icon/1490378791.jpg",
            "thumbnail": "https://images-webcams.windy.com/91/1490378791/current/thumbnail/1490378791.jpg",
            "preview": "https://images-webcams.windy.com/91/1490378791/current/preview/1490378791.jpg",
            "toenail": "https://images-webcams.windy.com/91/1490378791/current/thumbnail/1490378791.jpg"
          },
          "sizes": {
            "icon": {
              "width": 48,
              "height": 48
            },
            "thumbnail": {
              "width": 200,
              "height": 112
            },
            "preview": {
              "width": 400,
              "height": 224
            },
            "toenail": {
              "width": 200,
              "height": 112
            }
          },
          "daylight": {
            "icon": "https://images-webcams.windy.com/91/1490378791/daylight/icon/1490378791.jpg",
            "thumbnail": "https://images-webcams.windy.com/91/1490378791/daylight/thumbnail/1490378791.jpg",
            "preview": "https://images-webcams.windy.com/91/1490378791/daylight/preview/1490378791.jpg",
            "toenail": "https://images-webcams.windy.com/91/1490378791/daylight/thumbnail/1490378791.jpg"
          },
          "update": 1577734422
        },
        "location": {
          "city": "San Vito di Cadore",
          "region": "Veneto",
          "region_code": "IT.20",
          "country": "Italy",
          "country_code": "IT",
          "continent": "Europe",
          "continent_code": "EU",
          "latitude": 46.46278,
          "longitude": 12.20608,
          "timezone": "Europe/Rome",
          "wikipedia": "https://it.wikipedia.org/wiki/San Vito di Cadore"
        },
        "player": {
          "live": {
            "available": false,
            "embed": ""
          },
          "day": {
            "available": true,
            "link": "https://www.lookr.com/lookout/1490378791#action-play-day",
            "embed": "https://api.lookr.com/embed/player/1490378791/day"
          },
          "month": {
            "available": true,
            "link": "https://www.lookr.com/lookout/1490378791#action-play-month",
            "embed": "https://api.lookr.com/embed/player/1490378791/month"
          },
          "year": {
            "available": true,
            "link": "https://www.lookr.com/lookout/1490378791#action-play-year",
            "embed": "https://api.lookr.com/embed/player/1490378791/year"
          },
          "lifetime": {
            "available": true,
            "link": "https://www.lookr.com/lookout/1490378791#action-play-lifetime",
            "embed": "https://api.lookr.com/embed/player/1490378791/lifetime"
          }
        }
      },
      {
        "id": "1333611240",
        "status": "active",
        "title": "Belluno: Monte Serva",
        "image": {
          "current": {
            "icon": "https://images-webcams.windy.com/40/1333611240/current/icon/1333611240.jpg",
            "thumbnail": "https://images-webcams.windy.com/40/1333611240/current/thumbnail/1333611240.jpg",
            "preview": "https://images-webcams.windy.com/40/1333611240/current/preview/1333611240.jpg",
            "toenail": "https://images-webcams.windy.com/40/1333611240/current/thumbnail/1333611240.jpg"
          },
          "sizes": {
            "icon": {
              "width": 48,
              "height": 48
            },
            "thumbnail": {
              "width": 200,
              "height": 112
            },
            "preview": {
              "width": 400,
              "height": 224
            },
            "toenail": {
              "width": 200,
              "height": 112
            }
          },
          "daylight": {
            "icon": "https://images-webcams.windy.com/40/1333611240/daylight/icon/1333611240.jpg",
            "thumbnail": "https://images-webcams.windy.com/40/1333611240/daylight/thumbnail/1333611240.jpg",
            "preview": "https://images-webcams.windy.com/40/1333611240/daylight/preview/1333611240.jpg",
            "toenail": "https://images-webcams.windy.com/40/1333611240/daylight/thumbnail/1333611240.jpg"
          },
          "update": 1577734429
        },
        "location": {
          "city": "Belluno",
          "region": "Veneto",
          "region_code": "IT.20",
          "country": "Italy",
          "country_code": "IT",
          "continent": "Europe",
          "continent_code": "EU",
          "latitude": 46.126445,
          "longitude": 12.177529,
          "timezone": "Europe/Rome",
          "wikipedia": "https://it.wikipedia.org/wiki/Belluno"
        },
        "player": {
          "live": {
            "available": false,
            "embed": ""
          },
          "day": {
            "available": true,
            "link": "https://www.lookr.com/lookout/1333611240#action-play-day",
            "embed": "https://api.lookr.com/embed/player/1333611240/day"
          },
          "month": {
            "available": true,
            "link": "https://www.lookr.com/lookout/1333611240#action-play-month",
            "embed": "https://api.lookr.com/embed/player/1333611240/month"
          },
          "year": {
            "available": true,
            "link": "https://www.lookr.com/lookout/1333611240#action-play-year",
            "embed": "https://api.lookr.com/embed/player/1333611240/year"
          },
          "lifetime": {
            "available": true,
            "link": "https://www.lookr.com/lookout/1333611240#action-play-lifetime",
            "embed": "https://api.lookr.com/embed/player/1333611240/lifetime"
          }
        }
      },
      {
        "id": "1456686518",
        "status": "active",
        "title": "Belluno › West",
        "image": {
          "current": {
            "icon": "https://images-webcams.windy.com/18/1456686518/current/icon/1456686518.jpg",
            "thumbnail": "https://images-webcams.windy.com/18/1456686518/current/thumbnail/1456686518.jpg",
            "preview": "https://images-webcams.windy.com/18/1456686518/current/preview/1456686518.jpg",
            "toenail": "https://images-webcams.windy.com/18/1456686518/current/thumbnail/1456686518.jpg"
          },
          "sizes": {
            "icon": {
              "width": 48,
              "height": 48
            },
            "thumbnail": {
              "width": 200,
              "height": 112
            },
            "preview": {
              "width": 400,
              "height": 224
            },
            "toenail": {
              "width": 200,
              "height": 112
            }
          },
          "daylight": {
            "icon": "https://images-webcams.windy.com/18/1456686518/daylight/icon/1456686518.jpg",
            "thumbnail": "https://images-webcams.windy.com/18/1456686518/daylight/thumbnail/1456686518.jpg",
            "preview": "https://images-webcams.windy.com/18/1456686518/daylight/preview/1456686518.jpg",
            "toenail": "https://images-webcams.windy.com/18/1456686518/daylight/thumbnail/1456686518.jpg"
          },
          "update": 1577734449
        },
        "location": {
          "city": "Belluno",
          "region": "Veneto",
          "region_code": "IT.20",
          "country": "Italy",
          "country_code": "IT",
          "continent": "Europe",
          "continent_code": "EU",
          "latitude": 46.13961,
          "longitude": 12.217357,
          "timezone": "Europe/Rome",
          "wikipedia": "https://it.wikipedia.org/wiki/Belluno"
        },
        "player": {
          "live": {
            "available": false,
            "embed": ""
          },
          "day": {
            "available": true,
            "link": "https://www.lookr.com/lookout/1456686518#action-play-day",
            "embed": "https://api.lookr.com/embed/player/1456686518/day"
          },
          "month": {
            "available": true,
            "link": "https://www.lookr.com/lookout/1456686518#action-play-month",
            "embed": "https://api.lookr.com/embed/player/1456686518/month"
          },
          "year": {
            "available": true,
            "link": "https://www.lookr.com/lookout/1456686518#action-play-year",
            "embed": "https://api.lookr.com/embed/player/1456686518/year"
          },
          "lifetime": {
            "available": true,
            "link": "https://www.lookr.com/lookout/1456686518#action-play-lifetime",
            "embed": "https://api.lookr.com/embed/player/1456686518/lifetime"
          }
        }
      },
      {
        "id": "1549572283",
        "status": "active",
        "title": "Venice: Rialto Bridge",
        "image": {
          "current": {
            "icon": "https://images-webcams.windy.com/83/1549572283/current/icon/1549572283.jpg",
            "thumbnail": "https://images-webcams.windy.com/83/1549572283/current/thumbnail/1549572283.jpg",
            "preview": "https://images-webcams.windy.com/83/1549572283/current/preview/1549572283.jpg",
            "toenail": "https://images-webcams.windy.com/83/1549572283/current/thumbnail/1549572283.jpg"
          },
          "sizes": {
            "icon": {
              "width": 48,
              "height": 48
            },
            "thumbnail": {
              "width": 200,
              "height": 112
            },
            "preview": {
              "width": 400,
              "height": 224
            },
            "toenail": {
              "width": 200,
              "height": 112
            }
          },
          "daylight": {
            "icon": "https://images-webcams.windy.com/83/1549572283/daylight/icon/1549572283.jpg",
            "thumbnail": "https://images-webcams.windy.com/83/1549572283/daylight/thumbnail/1549572283.jpg",
            "preview": "https://images-webcams.windy.com/83/1549572283/daylight/preview/1549572283.jpg",
            "toenail": "https://images-webcams.windy.com/83/1549572283/daylight/thumbnail/1549572283.jpg"
          },
          "update": 1577734118
        },
        "location": {
          "city": "Venice",
          "region": "Veneto",
          "region_code": "IT.20",
          "country": "Italy",
          "country_code": "IT",
          "continent": "Europe",
          "continent_code": "EU",
          "latitude": 45.437856,
          "longitude": 12.334975,
          "timezone": "Europe/Rome",
          "wikipedia": "https://it.wikipedia.org/wiki/Venezia"
        },
        "player": {
          "live": {
            "available": false,
            "embed": ""
          },
          "day": {
            "available": true,
            "link": "https://www.lookr.com/lookout/1549572283#action-play-day",
            "embed": "https://api.lookr.com/embed/player/1549572283/day"
          },
          "month": {
            "available": true,
            "link": "https://www.lookr.com/lookout/1549572283#action-play-month",
            "embed": "https://api.lookr.com/embed/player/1549572283/month"
          },
          "year": {
            "available": true,
            "link": "https://www.lookr.com/lookout/1549572283#action-play-year",
            "embed": "https://api.lookr.com/embed/player/1549572283/year"
          },
          "lifetime": {
            "available": false,
            "link": "https://www.lookr.com/lookout/1549572283#action-play-lifetime",
            "embed": "https://api.lookr.com/embed/player/1549572283/lifetime"
          }
        }
      },
      {
        "id": "1201624544",
        "status": "active",
        "title": "Venice: Ponte di Rialto",
        "image": {
          "current": {
            "icon": "https://images-webcams.windy.com/44/1201624544/current/icon/1201624544.jpg",
            "thumbnail": "https://images-webcams.windy.com/44/1201624544/current/thumbnail/1201624544.jpg",
            "preview": "https://images-webcams.windy.com/44/1201624544/current/preview/1201624544.jpg",
            "toenail": "https://images-webcams.windy.com/44/1201624544/current/thumbnail/1201624544.jpg"
          },
          "sizes": {
            "icon": {
              "width": 48,
              "height": 48
            },
            "thumbnail": {
              "width": 200,
              "height": 112
            },
            "preview": {
              "width": 400,
              "height": 224
            },
            "toenail": {
              "width": 200,
              "height": 112
            }
          },
          "daylight": {
            "icon": "https://images-webcams.windy.com/44/1201624544/daylight/icon/1201624544.jpg",
            "thumbnail": "https://images-webcams.windy.com/44/1201624544/daylight/thumbnail/1201624544.jpg",
            "preview": "https://images-webcams.windy.com/44/1201624544/daylight/preview/1201624544.jpg",
            "toenail": "https://images-webcams.windy.com/44/1201624544/daylight/thumbnail/1201624544.jpg"
          },
          "update": 1577733887
        },
        "location": {
          "city": "Venice",
          "region": "Veneto",
          "region_code": "IT.20",
          "country": "Italy",
          "country_code": "IT",
          "continent": "Europe",
          "continent_code": "EU",
          "latitude": 45.437479,
          "longitude": 12.334723,
          "timezone": "Europe/Rome",
          "wikipedia": "https://it.wikipedia.org/wiki/Venezia"
        },
        "player": {
          "live": {
            "available": false,
            "embed": ""
          },
          "day": {
            "available": true,
            "link": "https://www.lookr.com/lookout/1201624544#action-play-day",
            "embed": "https://api.lookr.com/embed/player/1201624544/day"
          },
          "month": {
            "available": true,
            "link": "https://www.lookr.com/lookout/1201624544#action-play-month",
            "embed": "https://api.lookr.com/embed/player/1201624544/month"
          },
          "year": {
            "available": true,
            "link": "https://www.lookr.com/lookout/1201624544#action-play-year",
            "embed": "https://api.lookr.com/embed/player/1201624544/year"
          },
          "lifetime": {
            "available": true,
            "link": "https://www.lookr.com/lookout/1201624544#action-play-lifetime",
            "embed": "https://api.lookr.com/embed/player/1201624544/lifetime"
          }
        }
      },
      {
        "id": "1249042554",
        "status": "active",
        "title": "Malcesine: Stickl Sportcamp Gardasee",
        "image": {
          "current": {
            "icon": "https://images-webcams.windy.com/54/1249042554/current/icon/1249042554.jpg",
            "thumbnail": "https://images-webcams.windy.com/54/1249042554/current/thumbnail/1249042554.jpg",
            "preview": "https://images-webcams.windy.com/54/1249042554/current/preview/1249042554.jpg",
            "toenail": "https://images-webcams.windy.com/54/1249042554/current/thumbnail/1249042554.jpg"
          },
          "sizes": {
            "icon": {
              "width": 48,
              "height": 48
            },
            "thumbnail": {
              "width": 200,
              "height": 112
            },
            "preview": {
              "width": 400,
              "height": 224
            },
            "toenail": {
              "width": 200,
              "height": 112
            }
          },
          "daylight": {
            "icon": "https://images-webcams.windy.com/54/1249042554/daylight/icon/1249042554.jpg",
            "thumbnail": "https://images-webcams.windy.com/54/1249042554/daylight/thumbnail/1249042554.jpg",
            "preview": "https://images-webcams.windy.com/54/1249042554/daylight/preview/1249042554.jpg",
            "toenail": "https://images-webcams.windy.com/54/1249042554/daylight/thumbnail/1249042554.jpg"
          },
          "update": 1577733650
        },
        "location": {
          "city": "Malcesine",
          "region": "Veneto",
          "region_code": "IT.20",
          "country": "Italy",
          "country_code": "IT",
          "continent": "Europe",
          "continent_code": "EU",
          "latitude": 45.746084,
          "longitude": 10.800376,
          "timezone": "Europe/Rome",
          "wikipedia": "https://it.wikipedia.org/wiki/Malcesine"
        },
        "player": {
          "live": {
            "available": false,
            "embed": ""
          },
          "day": {
            "available": true,
            "link": "https://www.lookr.com/lookout/1249042554#action-play-day",
            "embed": "https://api.lookr.com/embed/player/1249042554/day"
          },
          "month": {
            "available": true,
            "link": "https://www.lookr.com/lookout/1249042554#action-play-month",
            "embed": "https://api.lookr.com/embed/player/1249042554/month"
          },
          "year": {
            "available": true,
            "link": "https://www.lookr.com/lookout/1249042554#action-play-year",
            "embed": "https://api.lookr.com/embed/player/1249042554/year"
          },
          "lifetime": {
            "available": true,
            "link": "https://www.lookr.com/lookout/1249042554#action-play-lifetime",
            "embed": "https://api.lookr.com/embed/player/1249042554/lifetime"
          }
        }
      },
      {
        "id": "1250802960",
        "status": "active",
        "title": "Vicenza: Piazza Dei Signori",
        "image": {
          "current": {
            "icon": "https://images-webcams.windy.com/60/1250802960/current/icon/1250802960.jpg",
            "thumbnail": "https://images-webcams.windy.com/60/1250802960/current/thumbnail/1250802960.jpg",
            "preview": "https://images-webcams.windy.com/60/1250802960/current/preview/1250802960.jpg",
            "toenail": "https://images-webcams.windy.com/60/1250802960/current/thumbnail/1250802960.jpg"
          },
          "sizes": {
            "icon": {
              "width": 48,
              "height": 48
            },
            "thumbnail": {
              "width": 200,
              "height": 112
            },
            "preview": {
              "width": 400,
              "height": 224
            },
            "toenail": {
              "width": 200,
              "height": 112
            }
          },
          "daylight": {
            "icon": "https://images-webcams.windy.com/60/1250802960/daylight/icon/1250802960.jpg",
            "thumbnail": "https://images-webcams.windy.com/60/1250802960/daylight/thumbnail/1250802960.jpg",
            "preview": "https://images-webcams.windy.com/60/1250802960/daylight/preview/1250802960.jpg",
            "toenail": "https://images-webcams.windy.com/60/1250802960/daylight/thumbnail/1250802960.jpg"
          },
          "update": 1577734398
        },
        "location": {
          "city": "Vicenza",
          "region": "Veneto",
          "region_code": "IT.20",
          "country": "Italy",
          "country_code": "IT",
          "continent": "Europe",
          "continent_code": "EU",
          "latitude": 45.547232,
          "longitude": 11.546373,
          "timezone": "Europe/Rome",
          "wikipedia": "https://it.wikipedia.org/wiki/Vicenza"
        },
        "player": {
          "live": {
            "available": false,
            "embed": ""
          },
          "day": {
            "available": true,
            "link": "https://www.lookr.com/lookout/1250802960#action-play-day",
            "embed": "https://api.lookr.com/embed/player/1250802960/day"
          },
          "month": {
            "available": true,
            "link": "https://www.lookr.com/lookout/1250802960#action-play-month",
            "embed": "https://api.lookr.com/embed/player/1250802960/month"
          },
          "year": {
            "available": true,
            "link": "https://www.lookr.com/lookout/1250802960#action-play-year",
            "embed": "https://api.lookr.com/embed/player/1250802960/year"
          },
          "lifetime": {
            "available": true,
            "link": "https://www.lookr.com/lookout/1250802960#action-play-lifetime",
            "embed": "https://api.lookr.com/embed/player/1250802960/lifetime"
          }
        }
      },
      {
        "id": "1537966367",
        "status": "active",
        "title": "Bosco Chiesanuova: Malga San Giorgio - Monte Pastello - Province of Verona - Lake Garda - Apennine Mountains",
        "image": {
          "current": {
            "icon": "https://images-webcams.windy.com/67/1537966367/current/icon/1537966367.jpg",
            "thumbnail": "https://images-webcams.windy.com/67/1537966367/current/thumbnail/1537966367.jpg",
            "preview": "https://images-webcams.windy.com/67/1537966367/current/preview/1537966367.jpg",
            "toenail": "https://images-webcams.windy.com/67/1537966367/current/thumbnail/1537966367.jpg"
          },
          "sizes": {
            "icon": {
              "width": 48,
              "height": 48
            },
            "thumbnail": {
              "width": 200,
              "height": 112
            },
            "preview": {
              "width": 400,
              "height": 224
            },
            "toenail": {
              "width": 200,
              "height": 112
            }
          },
          "daylight": {
            "icon": "https://images-webcams.windy.com/67/1537966367/daylight/icon/1537966367.jpg",
            "thumbnail": "https://images-webcams.windy.com/67/1537966367/daylight/thumbnail/1537966367.jpg",
            "preview": "https://images-webcams.windy.com/67/1537966367/daylight/preview/1537966367.jpg",
            "toenail": "https://images-webcams.windy.com/67/1537966367/daylight/thumbnail/1537966367.jpg"
          },
          "update": 1577734280
        },
        "location": {
          "city": "Bosco Chiesanuova",
          "region": "Veneto",
          "region_code": "IT.20",
          "country": "Italy",
          "country_code": "IT",
          "continent": "Europe",
          "continent_code": "EU",
          "latitude": 45.692185,
          "longitude": 11.057613,
          "timezone": "Europe/Rome",
          "wikipedia": "https://it.wikipedia.org/wiki/Bosco Chiesanuova"
        },
        "player": {
          "live": {
            "available": false,
            "embed": ""
          },
          "day": {
            "available": true,
            "link": "https://www.lookr.com/lookout/1537966367#action-play-day",
            "embed": "https://api.lookr.com/embed/player/1537966367/day"
          },
          "month": {
            "available": true,
            "link": "https://www.lookr.com/lookout/1537966367#action-play-month",
            "embed": "https://api.lookr.com/embed/player/1537966367/month"
          },
          "year": {
            "available": true,
            "link": "https://www.lookr.com/lookout/1537966367#action-play-year",
            "embed": "https://api.lookr.com/embed/player/1537966367/year"
          },
          "lifetime": {
            "available": false,
            "link": "https://www.lookr.com/lookout/1537966367#action-play-lifetime",
            "embed": "https://api.lookr.com/embed/player/1537966367/lifetime"
          }
        }
      },
      {
        "id": "1443466888",
        "status": "active",
        "title": "Cortina d'Ampezzo › East: Passo di Falzarego",
        "image": {
          "current": {
            "icon": "https://images-webcams.windy.com/88/1443466888/current/icon/1443466888.jpg",
            "thumbnail": "https://images-webcams.windy.com/88/1443466888/current/thumbnail/1443466888.jpg",
            "preview": "https://images-webcams.windy.com/88/1443466888/current/preview/1443466888.jpg",
            "toenail": "https://images-webcams.windy.com/88/1443466888/current/thumbnail/1443466888.jpg"
          },
          "sizes": {
            "icon": {
              "width": 48,
              "height": 48
            },
            "thumbnail": {
              "width": 200,
              "height": 112
            },
            "preview": {
              "width": 400,
              "height": 224
            },
            "toenail": {
              "width": 200,
              "height": 112
            }
          },
          "daylight": {
            "icon": "https://images-webcams.windy.com/88/1443466888/daylight/icon/1443466888.jpg",
            "thumbnail": "https://images-webcams.windy.com/88/1443466888/daylight/thumbnail/1443466888.jpg",
            "preview": "https://images-webcams.windy.com/88/1443466888/daylight/preview/1443466888.jpg",
            "toenail": "https://images-webcams.windy.com/88/1443466888/daylight/thumbnail/1443466888.jpg"
          },
          "update": 1577733688
        },
        "location": {
          "city": "Cortina d'Ampezzo",
          "region": "Veneto",
          "region_code": "IT.20",
          "country": "Italy",
          "country_code": "IT",
          "continent": "Europe",
          "continent_code": "EU",
          "latitude": 46.528044,
          "longitude": 12.008374,
          "timezone": "Europe/Rome",
          "wikipedia": "https://it.wikipedia.org/wiki/Cortina d'Ampezzo"
        },
        "player": {
          "live": {
            "available": false,
            "embed": ""
          },
          "day": {
            "available": true,
            "link": "https://www.lookr.com/lookout/1443466888#action-play-day",
            "embed": "https://api.lookr.com/embed/player/1443466888/day"
          },
          "month": {
            "available": true,
            "link": "https://www.lookr.com/lookout/1443466888#action-play-month",
            "embed": "https://api.lookr.com/embed/player/1443466888/month"
          },
          "year": {
            "available": true,
            "link": "https://www.lookr.com/lookout/1443466888#action-play-year",
            "embed": "https://api.lookr.com/embed/player/1443466888/year"
          },
          "lifetime": {
            "available": true,
            "link": "https://www.lookr.com/lookout/1443466888#action-play-lifetime",
            "embed": "https://api.lookr.com/embed/player/1443466888/lifetime"
          }
        }
      },
      {
        "id": "1490171140",
        "status": "active",
        "title": "Cortina d'Ampezzo › South: Corso Italia",
        "image": {
          "current": {
            "icon": "https://images-webcams.windy.com/40/1490171140/current/icon/1490171140.jpg",
            "thumbnail": "https://images-webcams.windy.com/40/1490171140/current/thumbnail/1490171140.jpg",
            "preview": "https://images-webcams.windy.com/40/1490171140/current/preview/1490171140.jpg",
            "toenail": "https://images-webcams.windy.com/40/1490171140/current/thumbnail/1490171140.jpg"
          },
          "sizes": {
            "icon": {
              "width": 48,
              "height": 48
            },
            "thumbnail": {
              "width": 200,
              "height": 112
            },
            "preview": {
              "width": 400,
              "height": 224
            },
            "toenail": {
              "width": 200,
              "height": 112
            }
          },
          "daylight": {
            "icon": "https://images-webcams.windy.com/40/1490171140/daylight/icon/1490171140.jpg",
            "thumbnail": "https://images-webcams.windy.com/40/1490171140/daylight/thumbnail/1490171140.jpg",
            "preview": "https://images-webcams.windy.com/40/1490171140/daylight/preview/1490171140.jpg",
            "toenail": "https://images-webcams.windy.com/40/1490171140/daylight/thumbnail/1490171140.jpg"
          },
          "update": 1577734046
        },
        "location": {
          "city": "Cortina d'Ampezzo",
          "region": "Veneto",
          "region_code": "IT.20",
          "country": "Italy",
          "country_code": "IT",
          "continent": "Europe",
          "continent_code": "EU",
          "latitude": 46.5369,
          "longitude": 12.13903,
          "timezone": "Europe/Rome",
          "wikipedia": "https://it.wikipedia.org/wiki/Cortina d'Ampezzo"
        },
        "player": {
          "live": {
            "available": false,
            "embed": ""
          },
          "day": {
            "available": true,
            "link": "https://www.lookr.com/lookout/1490171140#action-play-day",
            "embed": "https://api.lookr.com/embed/player/1490171140/day"
          },
          "month": {
            "available": true,
            "link": "https://www.lookr.com/lookout/1490171140#action-play-month",
            "embed": "https://api.lookr.com/embed/player/1490171140/month"
          },
          "year": {
            "available": true,
            "link": "https://www.lookr.com/lookout/1490171140#action-play-year",
            "embed": "https://api.lookr.com/embed/player/1490171140/year"
          },
          "lifetime": {
            "available": true,
            "link": "https://www.lookr.com/lookout/1490171140#action-play-lifetime",
            "embed": "https://api.lookr.com/embed/player/1490171140/lifetime"
          }
        }
      },
      {
        "id": "1510916448",
        "status": "active",
        "title": "Venice: The Gritti Palace (West View)",
        "image": {
          "current": {
            "icon": "https://images-webcams.windy.com/48/1510916448/current/icon/1510916448.jpg",
            "thumbnail": "https://images-webcams.windy.com/48/1510916448/current/thumbnail/1510916448.jpg",
            "preview": "https://images-webcams.windy.com/48/1510916448/current/preview/1510916448.jpg",
            "toenail": "https://images-webcams.windy.com/48/1510916448/current/thumbnail/1510916448.jpg"
          },
          "sizes": {
            "icon": {
              "width": 48,
              "height": 48
            },
            "thumbnail": {
              "width": 200,
              "height": 112
            },
            "preview": {
              "width": 400,
              "height": 224
            },
            "toenail": {
              "width": 200,
              "height": 112
            }
          },
          "daylight": {
            "icon": "https://images-webcams.windy.com/48/1510916448/daylight/icon/1510916448.jpg",
            "thumbnail": "https://images-webcams.windy.com/48/1510916448/daylight/thumbnail/1510916448.jpg",
            "preview": "https://images-webcams.windy.com/48/1510916448/daylight/preview/1510916448.jpg",
            "toenail": "https://images-webcams.windy.com/48/1510916448/daylight/thumbnail/1510916448.jpg"
          },
          "update": 1577734436
        },
        "location": {
          "city": "Venice",
          "region": "Veneto",
          "region_code": "IT.20",
          "country": "Italy",
          "country_code": "IT",
          "continent": "Europe",
          "continent_code": "EU",
          "latitude": 45.431637,
          "longitude": 12.33325,
          "timezone": "Europe/Rome",
          "wikipedia": "https://it.wikipedia.org/wiki/Venezia"
        },
        "player": {
          "live": {
            "available": false,
            "embed": ""
          },
          "day": {
            "available": true,
            "link": "https://www.lookr.com/lookout/1510916448#action-play-day",
            "embed": "https://api.lookr.com/embed/player/1510916448/day"
          },
          "month": {
            "available": true,
            "link": "https://www.lookr.com/lookout/1510916448#action-play-month",
            "embed": "https://api.lookr.com/embed/player/1510916448/month"
          },
          "year": {
            "available": true,
            "link": "https://www.lookr.com/lookout/1510916448#action-play-year",
            "embed": "https://api.lookr.com/embed/player/1510916448/year"
          },
          "lifetime": {
            "available": false,
            "link": "https://www.lookr.com/lookout/1510916448#action-play-lifetime",
            "embed": "https://api.lookr.com/embed/player/1510916448/lifetime"
          }
        }
      },
      {
        "id": "1362151156",
        "status": "active",
        "title": "Campodalbero: Rifugio Bepi Bertagnoli",
        "image": {
          "current": {
            "icon": "https://images-webcams.windy.com/56/1362151156/current/icon/1362151156.jpg",
            "thumbnail": "https://images-webcams.windy.com/56/1362151156/current/thumbnail/1362151156.jpg",
            "preview": "https://images-webcams.windy.com/56/1362151156/current/preview/1362151156.jpg",
            "toenail": "https://images-webcams.windy.com/56/1362151156/current/thumbnail/1362151156.jpg"
          },
          "sizes": {
            "icon": {
              "width": 48,
              "height": 48
            },
            "thumbnail": {
              "width": 200,
              "height": 112
            },
            "preview": {
              "width": 400,
              "height": 224
            },
            "toenail": {
              "width": 200,
              "height": 112
            }
          },
          "daylight": {
            "icon": "https://images-webcams.windy.com/56/1362151156/daylight/icon/1362151156.jpg",
            "thumbnail": "https://images-webcams.windy.com/56/1362151156/daylight/thumbnail/1362151156.jpg",
            "preview": "https://images-webcams.windy.com/56/1362151156/daylight/preview/1362151156.jpg",
            "toenail": "https://images-webcams.windy.com/56/1362151156/daylight/thumbnail/1362151156.jpg"
          },
          "update": 1577733368
        },
        "location": {
          "city": "Campodalbero",
          "region": "Veneto",
          "region_code": "IT.20",
          "country": "Italy",
          "country_code": "IT",
          "continent": "Europe",
          "continent_code": "EU",
          "latitude": 45.672723,
          "longitude": 11.165146,
          "timezone": "Europe/Rome",
          "wikipedia": ""
        },
        "player": {
          "live": {
            "available": false,
            "embed": ""
          },
          "day": {
            "available": true,
            "link": "https://www.lookr.com/lookout/1362151156#action-play-day",
            "embed": "https://api.lookr.com/embed/player/1362151156/day"
          },
          "month": {
            "available": true,
            "link": "https://www.lookr.com/lookout/1362151156#action-play-month",
            "embed": "https://api.lookr.com/embed/player/1362151156/month"
          },
          "year": {
            "available": true,
            "link": "https://www.lookr.com/lookout/1362151156#action-play-year",
            "embed": "https://api.lookr.com/embed/player/1362151156/year"
          },
          "lifetime": {
            "available": true,
            "link": "https://www.lookr.com/lookout/1362151156#action-play-lifetime",
            "embed": "https://api.lookr.com/embed/player/1362151156/lifetime"
          }
        }
      },
      {
        "id": "1521017198",
        "status": "active",
        "title": "Canazei: Passo Pordoi - Pordoi Pass - Sass Pordoi - Sasso Pordoi - Piz Boè",
        "image": {
          "current": {
            "icon": "https://images-webcams.windy.com/98/1521017198/current/icon/1521017198.jpg",
            "thumbnail": "https://images-webcams.windy.com/98/1521017198/current/thumbnail/1521017198.jpg",
            "preview": "https://images-webcams.windy.com/98/1521017198/current/preview/1521017198.jpg",
            "toenail": "https://images-webcams.windy.com/98/1521017198/current/thumbnail/1521017198.jpg"
          },
          "sizes": {
            "icon": {
              "width": 48,
              "height": 48
            },
            "thumbnail": {
              "width": 200,
              "height": 112
            },
            "preview": {
              "width": 400,
              "height": 224
            },
            "toenail": {
              "width": 200,
              "height": 112
            }
          },
          "daylight": {
            "icon": "https://images-webcams.windy.com/98/1521017198/daylight/icon/1521017198.jpg",
            "thumbnail": "https://images-webcams.windy.com/98/1521017198/daylight/thumbnail/1521017198.jpg",
            "preview": "https://images-webcams.windy.com/98/1521017198/daylight/preview/1521017198.jpg",
            "toenail": "https://images-webcams.windy.com/98/1521017198/daylight/thumbnail/1521017198.jpg"
          },
          "update": 1577722588
        },
        "location": {
          "city": "Canazei",
          "region": "Trentino-Alto Adige/Südtirol",
          "region_code": "IT.17",
          "country": "Italy",
          "country_code": "IT",
          "continent": "Europe",
          "continent_code": "EU",
          "latitude": 46.48752,
          "longitude": 11.81226,
          "timezone": "Europe/Rome",
          "wikipedia": "https://it.wikipedia.org/wiki/Canazei"
        },
        "player": {
          "live": {
            "available": false,
            "embed": ""
          },
          "day": {
            "available": true,
            "link": "https://www.lookr.com/lookout/1521017198#action-play-day",
            "embed": "https://api.lookr.com/embed/player/1521017198/day"
          },
          "month": {
            "available": true,
            "link": "https://www.lookr.com/lookout/1521017198#action-play-month",
            "embed": "https://api.lookr.com/embed/player/1521017198/month"
          },
          "year": {
            "available": true,
            "link": "https://www.lookr.com/lookout/1521017198#action-play-year",
            "embed": "https://api.lookr.com/embed/player/1521017198/year"
          },
          "lifetime": {
            "available": false,
            "link": "https://www.lookr.com/lookout/1521017198#action-play-lifetime",
            "embed": "https://api.lookr.com/embed/player/1521017198/lifetime"
          }
        }
      },
      {
        "id": "1386457153",
        "status": "active",
        "title": "Verona: Borgo Trento",
        "image": {
          "current": {
            "icon": "https://images-webcams.windy.com/53/1386457153/current/icon/1386457153.jpg",
            "thumbnail": "https://images-webcams.windy.com/53/1386457153/current/thumbnail/1386457153.jpg",
            "preview": "https://images-webcams.windy.com/53/1386457153/current/preview/1386457153.jpg",
            "toenail": "https://images-webcams.windy.com/53/1386457153/current/thumbnail/1386457153.jpg"
          },
          "sizes": {
            "icon": {
              "width": 48,
              "height": 48
            },
            "thumbnail": {
              "width": 200,
              "height": 112
            },
            "preview": {
              "width": 400,
              "height": 224
            },
            "toenail": {
              "width": 200,
              "height": 112
            }
          },
          "daylight": {
            "icon": "https://images-webcams.windy.com/53/1386457153/daylight/icon/1386457153.jpg",
            "thumbnail": "https://images-webcams.windy.com/53/1386457153/daylight/thumbnail/1386457153.jpg",
            "preview": "https://images-webcams.windy.com/53/1386457153/daylight/preview/1386457153.jpg",
            "toenail": "https://images-webcams.windy.com/53/1386457153/daylight/thumbnail/1386457153.jpg"
          },
          "update": 1577734343
        },
        "location": {
          "city": "Verona",
          "region": "Veneto",
          "region_code": "IT.20",
          "country": "Italy",
          "country_code": "IT",
          "continent": "Europe",
          "continent_code": "EU",
          "latitude": 45.43419,
          "longitude": 10.99779,
          "timezone": "Europe/Rome",
          "wikipedia": "https://it.wikipedia.org/wiki/Verona"
        },
        "player": {
          "live": {
            "available": false,
            "embed": ""
          },
          "day": {
            "available": true,
            "link": "https://www.lookr.com/lookout/1386457153#action-play-day",
            "embed": "https://api.lookr.com/embed/player/1386457153/day"
          },
          "month": {
            "available": true,
            "link": "https://www.lookr.com/lookout/1386457153#action-play-month",
            "embed": "https://api.lookr.com/embed/player/1386457153/month"
          },
          "year": {
            "available": true,
            "link": "https://www.lookr.com/lookout/1386457153#action-play-year",
            "embed": "https://api.lookr.com/embed/player/1386457153/year"
          },
          "lifetime": {
            "available": true,
            "link": "https://www.lookr.com/lookout/1386457153#action-play-lifetime",
            "embed": "https://api.lookr.com/embed/player/1386457153/lifetime"
          }
        }
      },
      {
        "id": "1510916051",
        "status": "active",
        "title": "Venice: Hotel Danieli - West",
        "image": {
          "current": {
            "icon": "https://images-webcams.windy.com/51/1510916051/current/icon/1510916051.jpg",
            "thumbnail": "https://images-webcams.windy.com/51/1510916051/current/thumbnail/1510916051.jpg",
            "preview": "https://images-webcams.windy.com/51/1510916051/current/preview/1510916051.jpg",
            "toenail": "https://images-webcams.windy.com/51/1510916051/current/thumbnail/1510916051.jpg"
          },
          "sizes": {
            "icon": {
              "width": 48,
              "height": 48
            },
            "thumbnail": {
              "width": 200,
              "height": 112
            },
            "preview": {
              "width": 400,
              "height": 224
            },
            "toenail": {
              "width": 200,
              "height": 112
            }
          },
          "daylight": {
            "icon": "https://images-webcams.windy.com/51/1510916051/daylight/icon/1510916051.jpg",
            "thumbnail": "https://images-webcams.windy.com/51/1510916051/daylight/thumbnail/1510916051.jpg",
            "preview": "https://images-webcams.windy.com/51/1510916051/daylight/preview/1510916051.jpg",
            "toenail": "https://images-webcams.windy.com/51/1510916051/daylight/thumbnail/1510916051.jpg"
          },
          "update": 1577733774
        },
        "location": {
          "city": "Venice",
          "region": "Veneto",
          "region_code": "IT.20",
          "country": "Italy",
          "country_code": "IT",
          "continent": "Europe",
          "continent_code": "EU",
          "latitude": 45.432351,
          "longitude": 12.34211,
          "timezone": "Europe/Rome",
          "wikipedia": "https://it.wikipedia.org/wiki/Venezia"
        },
        "player": {
          "live": {
            "available": false,
            "embed": ""
          },
          "day": {
            "available": true,
            "link": "https://www.lookr.com/lookout/1510916051#action-play-day",
            "embed": "https://api.lookr.com/embed/player/1510916051/day"
          },
          "month": {
            "available": true,
            "link": "https://www.lookr.com/lookout/1510916051#action-play-month",
            "embed": "https://api.lookr.com/embed/player/1510916051/month"
          },
          "year": {
            "available": true,
            "link": "https://www.lookr.com/lookout/1510916051#action-play-year",
            "embed": "https://api.lookr.com/embed/player/1510916051/year"
          },
          "lifetime": {
            "available": true,
            "link": "https://www.lookr.com/lookout/1510916051#action-play-lifetime",
            "embed": "https://api.lookr.com/embed/player/1510916051/lifetime"
          }
        }
      },
      {
        "id": "1349740822",
        "status": "active",
        "title": "Canale d'Agordo: Canale d Agordo - Piazza Papa Luciani",
        "image": {
          "current": {
            "icon": "https://images-webcams.windy.com/22/1349740822/current/icon/1349740822.jpg",
            "thumbnail": "https://images-webcams.windy.com/22/1349740822/current/thumbnail/1349740822.jpg",
            "preview": "https://images-webcams.windy.com/22/1349740822/current/preview/1349740822.jpg",
            "toenail": "https://images-webcams.windy.com/22/1349740822/current/thumbnail/1349740822.jpg"
          },
          "sizes": {
            "icon": {
              "width": 48,
              "height": 48
            },
            "thumbnail": {
              "width": 200,
              "height": 112
            },
            "preview": {
              "width": 400,
              "height": 224
            },
            "toenail": {
              "width": 200,
              "height": 112
            }
          },
          "daylight": {
            "icon": "https://images-webcams.windy.com/22/1349740822/daylight/icon/1349740822.jpg",
            "thumbnail": "https://images-webcams.windy.com/22/1349740822/daylight/thumbnail/1349740822.jpg",
            "preview": "https://images-webcams.windy.com/22/1349740822/daylight/preview/1349740822.jpg",
            "toenail": "https://images-webcams.windy.com/22/1349740822/daylight/thumbnail/1349740822.jpg"
          },
          "update": 1577734237
        },
        "location": {
          "city": "Canale d'Agordo",
          "region": "Trentino-Alto Adige/Südtirol",
          "region_code": "IT.17",
          "country": "Italy",
          "country_code": "IT",
          "continent": "Europe",
          "continent_code": "EU",
          "latitude": 46.356018,
          "longitude": 11.913392,
          "timezone": "Europe/Rome",
          "wikipedia": "https://it.wikipedia.org/wiki/Canale d'Agordo"
        },
        "player": {
          "live": {
            "available": false,
            "embed": ""
          },
          "day": {
            "available": true,
            "link": "https://www.lookr.com/lookout/1349740822#action-play-day",
            "embed": "https://api.lookr.com/embed/player/1349740822/day"
          },
          "month": {
            "available": true,
            "link": "https://www.lookr.com/lookout/1349740822#action-play-month",
            "embed": "https://api.lookr.com/embed/player/1349740822/month"
          },
          "year": {
            "available": true,
            "link": "https://www.lookr.com/lookout/1349740822#action-play-year",
            "embed": "https://api.lookr.com/embed/player/1349740822/year"
          },
          "lifetime": {
            "available": true,
            "link": "https://www.lookr.com/lookout/1349740822#action-play-lifetime",
            "embed": "https://api.lookr.com/embed/player/1349740822/lifetime"
          }
        }
      },
      {
        "id": "1269444113",
        "status": "active",
        "title": "Alleghe: e monte Civetta",
        "image": {
          "current": {
            "icon": "https://images-webcams.windy.com/13/1269444113/current/icon/1269444113.jpg",
            "thumbnail": "https://images-webcams.windy.com/13/1269444113/current/thumbnail/1269444113.jpg",
            "preview": "https://images-webcams.windy.com/13/1269444113/current/preview/1269444113.jpg",
            "toenail": "https://images-webcams.windy.com/13/1269444113/current/thumbnail/1269444113.jpg"
          },
          "sizes": {
            "icon": {
              "width": 48,
              "height": 48
            },
            "thumbnail": {
              "width": 200,
              "height": 112
            },
            "preview": {
              "width": 400,
              "height": 224
            },
            "toenail": {
              "width": 200,
              "height": 112
            }
          },
          "daylight": {
            "icon": "https://images-webcams.windy.com/13/1269444113/daylight/icon/1269444113.jpg",
            "thumbnail": "https://images-webcams.windy.com/13/1269444113/daylight/thumbnail/1269444113.jpg",
            "preview": "https://images-webcams.windy.com/13/1269444113/daylight/preview/1269444113.jpg",
            "toenail": "https://images-webcams.windy.com/13/1269444113/daylight/thumbnail/1269444113.jpg"
          },
          "update": 1577734099
        },
        "location": {
          "city": "Alleghe",
          "region": "Veneto",
          "region_code": "IT.20",
          "country": "Italy",
          "country_code": "IT",
          "continent": "Europe",
          "continent_code": "EU",
          "latitude": 46.407446,
          "longitude": 12.00943,
          "timezone": "Europe/Rome",
          "wikipedia": "https://it.wikipedia.org/wiki/Alleghe"
        },
        "player": {
          "live": {
            "available": false,
            "embed": ""
          },
          "day": {
            "available": true,
            "link": "https://www.lookr.com/lookout/1269444113#action-play-day",
            "embed": "https://api.lookr.com/embed/player/1269444113/day"
          },
          "month": {
            "available": true,
            "link": "https://www.lookr.com/lookout/1269444113#action-play-month",
            "embed": "https://api.lookr.com/embed/player/1269444113/month"
          },
          "year": {
            "available": true,
            "link": "https://www.lookr.com/lookout/1269444113#action-play-year",
            "embed": "https://api.lookr.com/embed/player/1269444113/year"
          },
          "lifetime": {
            "available": true,
            "link": "https://www.lookr.com/lookout/1269444113#action-play-lifetime",
            "embed": "https://api.lookr.com/embed/player/1269444113/lifetime"
          }
        }
      },
      {
        "id": "1302118633",
        "status": "active",
        "title": "Jesolo › South-West: Hotel Janeiro",
        "image": {
          "current": {
            "icon": "https://images-webcams.windy.com/33/1302118633/current/icon/1302118633.jpg",
            "thumbnail": "https://images-webcams.windy.com/33/1302118633/current/thumbnail/1302118633.jpg",
            "preview": "https://images-webcams.windy.com/33/1302118633/current/preview/1302118633.jpg",
            "toenail": "https://images-webcams.windy.com/33/1302118633/current/thumbnail/1302118633.jpg"
          },
          "sizes": {
            "icon": {
              "width": 48,
              "height": 48
            },
            "thumbnail": {
              "width": 200,
              "height": 112
            },
            "preview": {
              "width": 400,
              "height": 224
            },
            "toenail": {
              "width": 200,
              "height": 112
            }
          },
          "daylight": {
            "icon": "https://images-webcams.windy.com/33/1302118633/daylight/icon/1302118633.jpg",
            "thumbnail": "https://images-webcams.windy.com/33/1302118633/daylight/thumbnail/1302118633.jpg",
            "preview": "https://images-webcams.windy.com/33/1302118633/daylight/preview/1302118633.jpg",
            "toenail": "https://images-webcams.windy.com/33/1302118633/daylight/thumbnail/1302118633.jpg"
          },
          "update": 1577734082
        },
        "location": {
          "city": "Jesolo",
          "region": "Veneto",
          "region_code": "IT.20",
          "country": "Italy",
          "country_code": "IT",
          "continent": "Europe",
          "continent_code": "EU",
          "latitude": 45.516422,
          "longitude": 12.681055,
          "timezone": "Europe/Rome",
          "wikipedia": "https://it.wikipedia.org/wiki/Jesolo"
        },
        "player": {
          "live": {
            "available": false,
            "embed": ""
          },
          "day": {
            "available": true,
            "link": "https://www.lookr.com/lookout/1302118633#action-play-day",
            "embed": "https://api.lookr.com/embed/player/1302118633/day"
          },
          "month": {
            "available": true,
            "link": "https://www.lookr.com/lookout/1302118633#action-play-month",
            "embed": "https://api.lookr.com/embed/player/1302118633/month"
          },
          "year": {
            "available": true,
            "link": "https://www.lookr.com/lookout/1302118633#action-play-year",
            "embed": "https://api.lookr.com/embed/player/1302118633/year"
          },
          "lifetime": {
            "available": true,
            "link": "https://www.lookr.com/lookout/1302118633#action-play-lifetime",
            "embed": "https://api.lookr.com/embed/player/1302118633/lifetime"
          }
        }
      },
      {
        "id": "1520454906",
        "status": "active",
        "title": "Caorle: Webcam - Levante beach - Hotel Alexander",
        "image": {
          "current": {
            "icon": "https://images-webcams.windy.com/06/1520454906/current/icon/1520454906.jpg",
            "thumbnail": "https://images-webcams.windy.com/06/1520454906/current/thumbnail/1520454906.jpg",
            "preview": "https://images-webcams.windy.com/06/1520454906/current/preview/1520454906.jpg",
            "toenail": "https://images-webcams.windy.com/06/1520454906/current/thumbnail/1520454906.jpg"
          },
          "sizes": {
            "icon": {
              "width": 48,
              "height": 48
            },
            "thumbnail": {
              "width": 200,
              "height": 112
            },
            "preview": {
              "width": 400,
              "height": 224
            },
            "toenail": {
              "width": 200,
              "height": 112
            }
          },
          "daylight": {
            "icon": "https://images-webcams.windy.com/06/1520454906/daylight/icon/1520454906.jpg",
            "thumbnail": "https://images-webcams.windy.com/06/1520454906/daylight/thumbnail/1520454906.jpg",
            "preview": "https://images-webcams.windy.com/06/1520454906/daylight/preview/1520454906.jpg",
            "toenail": "https://images-webcams.windy.com/06/1520454906/daylight/thumbnail/1520454906.jpg"
          },
          "update": 1577734126
        },
        "location": {
          "city": "Caorle",
          "region": "Veneto",
          "region_code": "IT.20",
          "country": "Italy",
          "country_code": "IT",
          "continent": "Europe",
          "continent_code": "EU",
          "latitude": 45.60661,
          "longitude": 12.89476,
          "timezone": "Europe/Rome",
          "wikipedia": "https://it.wikipedia.org/wiki/Caorle"
        },
        "player": {
          "live": {
            "available": false,
            "embed": ""
          },
          "day": {
            "available": true,
            "link": "https://www.lookr.com/lookout/1520454906#action-play-day",
            "embed": "https://api.lookr.com/embed/player/1520454906/day"
          },
          "month": {
            "available": true,
            "link": "https://www.lookr.com/lookout/1520454906#action-play-month",
            "embed": "https://api.lookr.com/embed/player/1520454906/month"
          },
          "year": {
            "available": true,
            "link": "https://www.lookr.com/lookout/1520454906#action-play-year",
            "embed": "https://api.lookr.com/embed/player/1520454906/year"
          },
          "lifetime": {
            "available": false,
            "link": "https://www.lookr.com/lookout/1520454906#action-play-lifetime",
            "embed": "https://api.lookr.com/embed/player/1520454906/lifetime"
          }
        }
      },
      {
        "id": "1420400680",
        "status": "active",
        "title": "Canale d'Agordo › East: Monte Civetta",
        "image": {
          "current": {
            "icon": "https://images-webcams.windy.com/80/1420400680/current/icon/1420400680.jpg",
            "thumbnail": "https://images-webcams.windy.com/80/1420400680/current/thumbnail/1420400680.jpg",
            "preview": "https://images-webcams.windy.com/80/1420400680/current/preview/1420400680.jpg",
            "toenail": "https://images-webcams.windy.com/80/1420400680/current/thumbnail/1420400680.jpg"
          },
          "sizes": {
            "icon": {
              "width": 48,
              "height": 48
            },
            "thumbnail": {
              "width": 200,
              "height": 112
            },
            "preview": {
              "width": 400,
              "height": 224
            },
            "toenail": {
              "width": 200,
              "height": 112
            }
          },
          "daylight": {
            "icon": "https://images-webcams.windy.com/80/1420400680/daylight/icon/1420400680.jpg",
            "thumbnail": "https://images-webcams.windy.com/80/1420400680/daylight/thumbnail/1420400680.jpg",
            "preview": "https://images-webcams.windy.com/80/1420400680/daylight/preview/1420400680.jpg",
            "toenail": "https://images-webcams.windy.com/80/1420400680/daylight/thumbnail/1420400680.jpg"
          },
          "update": 1577734462
        },
        "location": {
          "city": "Canale d'Agordo",
          "region": "Trentino-Alto Adige/Südtirol",
          "region_code": "IT.17",
          "country": "Italy",
          "country_code": "IT",
          "continent": "Europe",
          "continent_code": "EU",
          "latitude": 46.359518,
          "longitude": 11.917098,
          "timezone": "Europe/Rome",
          "wikipedia": "https://it.wikipedia.org/wiki/Canale d'Agordo"
        },
        "player": {
          "live": {
            "available": false,
            "embed": ""
          },
          "day": {
            "available": true,
            "link": "https://www.lookr.com/lookout/1420400680#action-play-day",
            "embed": "https://api.lookr.com/embed/player/1420400680/day"
          },
          "month": {
            "available": true,
            "link": "https://www.lookr.com/lookout/1420400680#action-play-month",
            "embed": "https://api.lookr.com/embed/player/1420400680/month"
          },
          "year": {
            "available": true,
            "link": "https://www.lookr.com/lookout/1420400680#action-play-year",
            "embed": "https://api.lookr.com/embed/player/1420400680/year"
          },
          "lifetime": {
            "available": true,
            "link": "https://www.lookr.com/lookout/1420400680#action-play-lifetime",
            "embed": "https://api.lookr.com/embed/player/1420400680/lifetime"
          }
        }
      },
      {
        "id": "1490174360",
        "status": "active",
        "title": "Bardolino › West: Hotel Campagnola",
        "image": {
          "current": {
            "icon": "https://images-webcams.windy.com/60/1490174360/current/icon/1490174360.jpg",
            "thumbnail": "https://images-webcams.windy.com/60/1490174360/current/thumbnail/1490174360.jpg",
            "preview": "https://images-webcams.windy.com/60/1490174360/current/preview/1490174360.jpg",
            "toenail": "https://images-webcams.windy.com/60/1490174360/current/thumbnail/1490174360.jpg"
          },
          "sizes": {
            "icon": {
              "width": 48,
              "height": 48
            },
            "thumbnail": {
              "width": 200,
              "height": 112
            },
            "preview": {
              "width": 400,
              "height": 224
            },
            "toenail": {
              "width": 200,
              "height": 112
            }
          },
          "daylight": {
            "icon": "https://images-webcams.windy.com/60/1490174360/daylight/icon/1490174360.jpg",
            "thumbnail": "https://images-webcams.windy.com/60/1490174360/daylight/thumbnail/1490174360.jpg",
            "preview": "https://images-webcams.windy.com/60/1490174360/daylight/preview/1490174360.jpg",
            "toenail": "https://images-webcams.windy.com/60/1490174360/daylight/thumbnail/1490174360.jpg"
          },
          "update": 1577733834
        },
        "location": {
          "city": "Bardolino",
          "region": "Veneto",
          "region_code": "IT.20",
          "country": "Italy",
          "country_code": "IT",
          "continent": "Europe",
          "continent_code": "EU",
          "latitude": 45.539237,
          "longitude": 10.726481,
          "timezone": "Europe/Rome",
          "wikipedia": "https://it.wikipedia.org/wiki/Bardolino"
        },
        "player": {
          "live": {
            "available": false,
            "embed": ""
          },
          "day": {
            "available": true,
            "link": "https://www.lookr.com/lookout/1490174360#action-play-day",
            "embed": "https://api.lookr.com/embed/player/1490174360/day"
          },
          "month": {
            "available": true,
            "link": "https://www.lookr.com/lookout/1490174360#action-play-month",
            "embed": "https://api.lookr.com/embed/player/1490174360/month"
          },
          "year": {
            "available": true,
            "link": "https://www.lookr.com/lookout/1490174360#action-play-year",
            "embed": "https://api.lookr.com/embed/player/1490174360/year"
          },
          "lifetime": {
            "available": true,
            "link": "https://www.lookr.com/lookout/1490174360#action-play-lifetime",
            "embed": "https://api.lookr.com/embed/player/1490174360/lifetime"
          }
        }
      },
      {
        "id": "1490378548",
        "status": "active",
        "title": "Cortina d'Ampezzo: Cinque Torri",
        "image": {
          "current": {
            "icon": "https://images-webcams.windy.com/48/1490378548/current/icon/1490378548.jpg",
            "thumbnail": "https://images-webcams.windy.com/48/1490378548/current/thumbnail/1490378548.jpg",
            "preview": "https://images-webcams.windy.com/48/1490378548/current/preview/1490378548.jpg",
            "toenail": "https://images-webcams.windy.com/48/1490378548/current/thumbnail/1490378548.jpg"
          },
          "sizes": {
            "icon": {
              "width": 48,
              "height": 48
            },
            "thumbnail": {
              "width": 200,
              "height": 112
            },
            "preview": {
              "width": 400,
              "height": 224
            },
            "toenail": {
              "width": 200,
              "height": 112
            }
          },
          "daylight": {
            "icon": "https://images-webcams.windy.com/48/1490378548/daylight/icon/1490378548.jpg",
            "thumbnail": "https://images-webcams.windy.com/48/1490378548/daylight/thumbnail/1490378548.jpg",
            "preview": "https://images-webcams.windy.com/48/1490378548/daylight/preview/1490378548.jpg",
            "toenail": "https://images-webcams.windy.com/48/1490378548/daylight/thumbnail/1490378548.jpg"
          },
          "update": 1577725888
        },
        "location": {
          "city": "Cortina d'Ampezzo",
          "region": "Veneto",
          "region_code": "IT.20",
          "country": "Italy",
          "country_code": "IT",
          "continent": "Europe",
          "continent_code": "EU",
          "latitude": 46.50902,
          "longitude": 12.05136,
          "timezone": "Europe/Rome",
          "wikipedia": "https://it.wikipedia.org/wiki/Cortina d'Ampezzo"
        },
        "player": {
          "live": {
            "available": false,
            "embed": ""
          },
          "day": {
            "available": true,
            "link": "https://www.lookr.com/lookout/1490378548#action-play-day",
            "embed": "https://api.lookr.com/embed/player/1490378548/day"
          },
          "month": {
            "available": true,
            "link": "https://www.lookr.com/lookout/1490378548#action-play-month",
            "embed": "https://api.lookr.com/embed/player/1490378548/month"
          },
          "year": {
            "available": true,
            "link": "https://www.lookr.com/lookout/1490378548#action-play-year",
            "embed": "https://api.lookr.com/embed/player/1490378548/year"
          },
          "lifetime": {
            "available": true,
            "link": "https://www.lookr.com/lookout/1490378548#action-play-lifetime",
            "embed": "https://api.lookr.com/embed/player/1490378548/lifetime"
          }
        }
      },
      {
        "id": "1509136506",
        "status": "active",
        "title": "Rosolina Mare: Holiday Village Rosapineta Sud - webcam",
        "image": {
          "current": {
            "icon": "https://images-webcams.windy.com/06/1509136506/current/icon/1509136506.jpg",
            "thumbnail": "https://images-webcams.windy.com/06/1509136506/current/thumbnail/1509136506.jpg",
            "preview": "https://images-webcams.windy.com/06/1509136506/current/preview/1509136506.jpg",
            "toenail": "https://images-webcams.windy.com/06/1509136506/current/thumbnail/1509136506.jpg"
          },
          "sizes": {
            "icon": {
              "width": 48,
              "height": 48
            },
            "thumbnail": {
              "width": 200,
              "height": 112
            },
            "preview": {
              "width": 400,
              "height": 224
            },
            "toenail": {
              "width": 200,
              "height": 112
            }
          },
          "daylight": {
            "icon": "https://images-webcams.windy.com/06/1509136506/daylight/icon/1509136506.jpg",
            "thumbnail": "https://images-webcams.windy.com/06/1509136506/daylight/thumbnail/1509136506.jpg",
            "preview": "https://images-webcams.windy.com/06/1509136506/daylight/preview/1509136506.jpg",
            "toenail": "https://images-webcams.windy.com/06/1509136506/daylight/thumbnail/1509136506.jpg"
          },
          "update": 1577734361
        },
        "location": {
          "city": "Rosolina Mare",
          "region": "Veneto",
          "region_code": "IT.20",
          "country": "Italy",
          "country_code": "IT",
          "continent": "Europe",
          "continent_code": "EU",
          "latitude": 45.12993,
          "longitude": 12.32017,
          "timezone": "Europe/Rome",
          "wikipedia": ""
        },
        "player": {
          "live": {
            "available": false,
            "embed": ""
          },
          "day": {
            "available": true,
            "link": "https://www.lookr.com/lookout/1509136506#action-play-day",
            "embed": "https://api.lookr.com/embed/player/1509136506/day"
          },
          "month": {
            "available": true,
            "link": "https://www.lookr.com/lookout/1509136506#action-play-month",
            "embed": "https://api.lookr.com/embed/player/1509136506/month"
          },
          "year": {
            "available": true,
            "link": "https://www.lookr.com/lookout/1509136506#action-play-year",
            "embed": "https://api.lookr.com/embed/player/1509136506/year"
          },
          "lifetime": {
            "available": false,
            "link": "https://www.lookr.com/lookout/1509136506#action-play-lifetime",
            "embed": "https://api.lookr.com/embed/player/1509136506/lifetime"
          }
        }
      }
    ]
  }
}
